<?xml version="1.0" standalone="no"?>
<!DOCTYPE svg PUBLIC "-//W3C//DTD SVG 20010904//EN"
 "http://www.w3.org/TR/2001/REC-SVG-20010904/DTD/svg10.dtd">
<svg version="1.0" xmlns="http://www.w3.org/2000/svg"
 width="640.000000pt" height="640.000000pt" viewBox="0 0 640.000000 640.000000"
 preserveAspectRatio="xMidYMid meet">
<metadata>
Created by potrace 1.11, written by Peter Selinger 2001-2013
</metadata>
<g transform="translate(0.000000,640.000000) scale(0.100000,-0.100000)"
fill="#000000" stroke="none">
<path d="M3149 6073 c-44 -46 -101 -127 -206 -293 -71 -111 -238 -385 -283
-465 -10 -16 -67 -115 -127 -220 -60 -104 -172 -302 -248 -440 -160 -290 -468
-842 -630 -1130 -62 -110 -122 -217 -134 -238 -34 -62 -237 -420 -329 -582
-106 -188 -400 -700 -567 -990 -70 -121 -152 -263 -182 -315 -30 -52 -63 -111
-75 -130 -16 -27 -348 -603 -364 -631 -4 -6 190 -115 371 -209 103 -53 231
-105 308 -124 63 -16 71 -16 93 -1 51 33 159 310 244 630 30 112 136 433 165
500 7 17 25 59 38 95 67 171 126 293 277 565 72 132 133 241 134 242 3 3 310
11 676 18 157 3 380 7 495 10 116 2 336 7 490 10 154 3 379 8 500 10 121 3
343 7 492 10 l273 6 34 -73 c18 -40 54 -116 79 -168 24 -52 65 -138 90 -190
24 -52 66 -140 92 -195 26 -55 67 -143 92 -195 60 -127 174 -379 208 -460 15
-36 35 -83 45 -105 75 -169 156 -395 201 -560 35 -129 64 -175 111 -175 55 0
145 39 466 202 185 94 356 181 380 192 l42 21 -176 200 c-271 308 -459 568
-744 1025 -63 101 -244 400 -273 450 -18 33 -96 166 -117 200 -52 86 -464 825
-481 864 -5 12 -21 41 -35 66 -14 25 -57 106 -96 180 -39 74 -89 169 -111 210
-22 41 -175 343 -339 670 -284 564 -476 940 -532 1040 -13 25 -35 65 -47 90
-70 138 -244 420 -259 420 -3 0 -22 -17 -41 -37z m26 -1287 c284 -410 965
-1638 965 -1741 0 -33 -88 -65 -220 -80 -30 -3 -71 -7 -90 -10 -238 -27 -1252
-28 -1580 -1 -194 16 -234 25 -238 54 -4 28 69 196 185 422 53 102 99 190 103
195 4 6 31 55 60 110 208 390 601 1037 690 1133 38 42 39 41 125 -82z"/>
</g>
</svg>
